  ;-- section..text:
  ;-- .text:
  ;-- _start:
  ;-- rip:
┌ 47: entry0 (int64_t arg3);
│ ; arg int64_t arg3 @ rdx
│ 0x00001120      f30f1efa       endbr64                               ; [16] -r-x section size 4597 named .text
│ 0x00001124      31ed           xor ebp, ebp
│ 0x00001126      4989d1         mov r9, rdx                           ; arg3
│ 0x00001129      5e             pop rsi
│ 0x0000112a      4889e2         mov rdx, rsp
│ 0x0000112d      4883e4f0       and rsp, 0xfffffffffffffff0
│ 0x00001131      50             push rax
│ 0x00001132      54             push rsp
│ 0x00001133      4c8d05d61100.  lea r8, [sym.__libc_csu_fini]         ; 0x2310
│ 0x0000113a      488d0d5f1100.  lea rcx, [sym.__libc_csu_init]        ; 0x22a0
│ 0x00001141      488d3dc10000.  lea rdi, [main]                       ; 0x1209
│ 0x00001148      ff15923e0000   call qword [reloc.__libc_start_main]  ; [0x4fe0:8]=0x5178 reloc.__libc_start_main
└ 0x0000114e      f4             hlt

  ; CALL XREF from sym.__do_global_dtors_aux @ 0x11e7
┌ 34: sym.deregister_tm_clones ();
│ 0x00001150      488d3d613f00.  lea rdi, obj.completed.8060           ; obj.__TMC_END__
│                                                                      ; 0x50b8
│ 0x00001157      488d055a3f00.  lea rax, obj.completed.8060           ; obj.__TMC_END__
│                                                                      ; 0x50b8
│ 0x0000115e      4839f8         cmp rax, rdi
│ 0x00001161      7415           je 0x1178
| ----------- true: 0x00001178  false: 0x00001163
│ 0x00001163      488b056e3e00.  mov rax, qword [0x00004fd8]           ; [0x4fd8:8]=0x5170 reloc._ITM_deregisterTMCloneTable
│ 0x0000116a      4885c0         test rax, rax
│ 0x0000116d      7409           je 0x1178
| ----------- true: 0x00001178  false: 0x0000116f
│ 0x0000116f      ffe0           jmp rax

│ ; CODE XREFS from sym.deregister_tm_clones @ 0x1161, 0x116d
└ 0x00001178      c3             ret

  ; CODE XREF from entry.init0 @ 0x1204
┌ 51: sym.register_tm_clones ();
│ 0x00001180      488d3d313f00.  lea rdi, obj.completed.8060           ; obj.__TMC_END__
│                                                                      ; 0x50b8
│ 0x00001187      488d352a3f00.  lea rsi, obj.completed.8060           ; obj.__TMC_END__
│                                                                      ; 0x50b8
│ 0x0000118e      4829fe         sub rsi, rdi
│ 0x00001191      4889f0         mov rax, rsi
│ 0x00001194      48c1ee3f       shr rsi, 0x3f
│ 0x00001198      48c1f803       sar rax, 3
│ 0x0000119c      4801c6         add rsi, rax
│ 0x0000119f      48d1fe         sar rsi, 1
│ 0x000011a2      7414           je 0x11b8
| ----------- true: 0x000011b8  false: 0x000011a4
│ 0x000011a4      488b05453e00.  mov rax, qword [0x00004ff0]           ; [0x4ff0:8]=0x5188 reloc._ITM_registerTMCloneTable
│ 0x000011ab      4885c0         test rax, rax
│ 0x000011ae      7408           je 0x11b8
| ----------- true: 0x000011b8  false: 0x000011b0
│ 0x000011b0      ffe0           jmp rax

│ ; CODE XREFS from sym.register_tm_clones @ 0x11a2, 0x11ae
└ 0x000011b8      c3             ret

  ;-- entry.fini0:
┌ 54: sym.__do_global_dtors_aux ();
│ 0x000011c0      f30f1efa       endbr64
│ 0x000011c4      803ded3e0000.  cmp byte [obj.completed.8060], 0      ; obj.__TMC_END__
│                                                                      ; [0x50b8:1]=1
│ 0x000011cb      752b           jne 0x11f8
| ----------- true: 0x000011f8  false: 0x000011cd
│ 0x000011cd      55             push rbp
│ 0x000011ce      48833d223e00.  cmp qword [0x00004ff8], 0             ; [0x4ff8:8]=0x5190 reloc.__cxa_finalize
│ ; DATA XREF from entry0 @ 0x1133
│ 0x000011d6      4889e5         mov rbp, rsp
│ 0x000011d9      740c           je 0x11e7
| ----------- true: 0x000011e7  false: 0x000011db
│ 0x000011db      488b3d263e00.  mov rdi, qword [obj.__dso_handle]     ; [0x5008:8]=0x5008 obj.__dso_handle
│ 0x000011e2      e8b9feffff     call sym..plt.got
| ----------- true: 0x000011e7
│ ; CODE XREF from sym.__do_global_dtors_aux @ 0x11d9
│ 0x000011e7      e864ffffff     call sym.deregister_tm_clones
│ 0x000011ec      c605c53e0000.  mov byte [obj.completed.8060], 1      ; obj.__TMC_END__
│                                                                      ; [0x50b8:1]=1
│ 0x000011f3      5d             pop rbp
│ 0x000011f4      c3             ret

│ ; CODE XREF from sym.__do_global_dtors_aux @ 0x11cb
└ 0x000011f8      c3             ret

  ; CALL XREF from sym.__do_global_dtors_aux @ 0x11e2
  ;-- section..plt.got:
┌ 11: sym..plt.got ();
│ 0x000010a0      f30f1efa       endbr64                               ; [14] -r-x section size 16 named .plt.got
└ 0x000010a4      f2ff254d3f00.  bnd jmp qword [reloc.__cxa_finalize]  ; [0x4ff8:8]=0x5190 reloc.__cxa_finalize

  ;-- frame_dummy:
┌ 9: entry.init0 ();
│ 0x00001200      f30f1efa       endbr64
└ 0x00001204      e977ffffff     jmp sym.register_tm_clones
| ----------- true: 0x00001180
  ; CALL XREF from sym.__libc_csu_init @ 0x22cc
  ;-- section..init:
  ;-- segment.LOAD1:
  ;-- .init:
┌ 27: sym._init ();
│ 0x00001000      f30f1efa       endbr64                               ; [12] -r-x section size 27 named .init
│ 0x00001004      4883ec08       sub rsp, 8
│ 0x00001008      488b05d93f00.  mov rax, qword [0x00004fe8]           ; [0x4fe8:8]=0x5180 reloc.__gmon_start__
│ 0x0000100f      4885c0         test rax, rax
│ 0x00001012      7402           je 0x1016
| ----------- true: 0x00001016  false: 0x00001014
│ 0x00001014      ffd0           call rax
| ----------- true: 0x00001016
│ ; CODE XREF from sym._init @ 0x1012
│ 0x00001016      4883c408       add rsp, 8
└ 0x0000101a      c3             ret

  ; DATA XREF from entry0 @ 0x1133
┌ 5: sym.__libc_csu_fini ();
│ 0x00002310      f30f1efa       endbr64
└ 0x00002314      c3             ret

  ; CALL XREF from main @ 0x1220
┌ 31: sym.megaInit ();
│ 0x00001643      f30f1efa       endbr64
│ 0x00001647      55             push rbp
│ 0x00001648      4889e5         mov rbp, rsp
│ 0x0000164b      e8daffffff     call sym.alphabet_i_nit
│ 0x00001650      e80d000000     call sym.keyLength_i_nit
│ 0x00001655      e82c0c0000     call sym.minLengthUser_i_nit
│ 0x0000165a      e818000000     call sym.key_i_nit
│ 0x0000165f      90             nop
│ 0x00001660      5d             pop rbp
└ 0x00001661      c3             ret

  ; CALL XREF from sym.megaInit @ 0x164b
┌ 25: sym.alphabet_i_nit ();
│ 0x0000162a      f30f1efa       endbr64
│ 0x0000162e      55             push rbp
│ 0x0000162f      4889e5         mov rbp, rsp
│ 0x00001632      488d05971a00.  lea rax, str.ABCDEFGHIJKLMNOPQRSTUVWXYZabcdefghijklmnopqrstuvwxyz0123456789 ; 0x30d0 ; "ABCDEFGHIJKLMNOPQRSTUVWXYZabcdefghijklmnopqrstuvwxyz0123456789"
│ 0x00001639      488905c83a00.  mov qword [obj.alphabet], rax         ; [0x5108:8]=0x30d0 str.ABCDEFGHIJKLMNOPQRSTUVWXYZabcdefghijklmnopqrstuvwxyz0123456789
│ 0x00001640      90             nop
│ 0x00001641      5d             pop rbp
└ 0x00001642      c3             ret

  ; CALL XREF from sym.megaInit @ 0x1650
┌ 21: sym.keyLength_i_nit ();
│ 0x00001662      f30f1efa       endbr64
│ 0x00001666      55             push rbp
│ 0x00001667      4889e5         mov rbp, rsp
│ 0x0000166a      c7058c3a0000.  mov dword [obj.keyLength], 0xa        ; [0x5100:4]=10 ; "\n"
│ 0x00001674      90             nop
│ 0x00001675      5d             pop rbp
└ 0x00001676      c3             ret

  ; CALL XREF from sym.megaInit @ 0x1655
┌ 21: sym.minLengthUser_i_nit ();
│ 0x00002286      f30f1efa       endbr64
│ 0x0000228a      55             push rbp
│ 0x0000228b      4889e5         mov rbp, rsp
│ 0x0000228e      c705782e0000.  mov dword [obj.minLengthUser], 3      ; [0x5110:4]=3
│ 0x00002298      90             nop
│ 0x00002299      5d             pop rbp
└ 0x0000229a      c3             ret

  ; CALL XREF from sym.megaInit @ 0x165a
┌ 25: sym.key_i_nit ();
│ 0x00001677      f30f1efa       endbr64
│ 0x0000167b      55             push rbp
│ 0x0000167c      4889e5         mov rbp, rsp
│ 0x0000167f      488d05891a00.  lea rax, str.TheSecretStaticKey       ; 0x310f ; "TheSecretStaticKey"
│ 0x00001686      4889058b3a00.  mov qword [obj.key], rax              ; [0x5118:8]=0x310f str.TheSecretStaticKey
│ 0x0000168d      90             nop
│ 0x0000168e      5d             pop rbp
└ 0x0000168f      c3             ret

  ; CALL XREFS from fcn.00001e85 @ 0x1ec4, 0x1eeb
┌ 610: sym.getFibNo (int64_t arg1);
│ ; var int64_t var_124h @ rbp-0x124
│ ; var int64_t var_110h @ rbp-0x110
│ ; var signed int64_t var_10ch @ rbp-0x10c
│ ; var int64_t var_108h @ rbp-0x108
│ ; var int64_t var_104h @ rbp-0x104
│ ; var int64_t var_100h @ rbp-0x100
│ ; var int64_t var_fch @ rbp-0xfc
│ ; var int64_t var_f8h @ rbp-0xf8
│ ; var int64_t var_f4h @ rbp-0xf4
│ ; var int64_t var_b8h @ rbp-0xb8
│ ; var int64_t var_b0h @ rbp-0xb0
│ ; var int64_t var_a8h @ rbp-0xa8
│ ; var int64_t var_a0h @ rbp-0xa0
│ ; var int64_t var_98h @ rbp-0x98
│ ; var int64_t var_90h @ rbp-0x90
│ ; var int64_t var_88h @ rbp-0x88
│ ; var int64_t var_80h @ rbp-0x80
│ ; var int64_t var_78h @ rbp-0x78
│ ; var int64_t var_70h @ rbp-0x70
│ ; var int64_t var_68h @ rbp-0x68
│ ; var int64_t var_60h @ rbp-0x60
│ ; var int64_t var_58h @ rbp-0x58
│ ; var int64_t var_50h @ rbp-0x50
│ ; var int64_t var_48h @ rbp-0x48
│ ; var int64_t var_40h @ rbp-0x40
│ ; var int64_t var_38h @ rbp-0x38
│ ; var int64_t var_30h @ rbp-0x30
│ ; var int64_t var_28h @ rbp-0x28
│ ; var int64_t var_20h @ rbp-0x20
│ ; var int64_t var_18h @ rbp-0x18
│ ; var int64_t var_10h @ rbp-0x10
│ ; var int64_t canary @ rbp-0x8
│ ; arg int64_t arg1 @ rdi
│ 0x00001690      f30f1efa       endbr64
│ 0x00001694      55             push rbp
│ 0x00001695      4889e5         mov rbp, rsp
│ 0x00001698      4881ec300100.  sub rsp, 0x130
│ 0x0000169f      89bddcfeffff   mov dword [var_124h], edi             ; arg1
│ 0x000016a5      64488b042528.  mov rax, qword fs:[0x28]
│ 0x000016ae      488945f8       mov qword [canary], rax
│ 0x000016b2      31c0           xor eax, eax
│ 0x000016b4      488d05040200.  lea rax, [fcn.000018bf]               ; 0x18bf
│ 0x000016bb      488945b0       mov qword [var_50h], rax
│ 0x000016bf      488d055e0100.  lea rax, [fcn.00001824]               ; 0x1824
│ 0x000016c6      488945b8       mov qword [var_48h], rax
│ 0x000016ca      488d05480200.  lea rax, [fcn.00001919]               ; 0x1919
│ 0x000016d1      488945c0       mov qword [var_40h], rax
│ 0x000016d5      488d05bb0100.  lea rax, [0x00001897]
│ 0x000016dc      488945c8       mov qword [var_38h], rax
│ 0x000016e0      488d05830000.  lea rax, [fcn.0000176a]               ; 0x176a
│ 0x000016e7      488945d0       mov qword [var_30h], rax
│ 0x000016eb      488d05b80100.  lea rax, [fcn.000018aa]               ; 0x18aa
│ 0x000016f2      488945d8       mov qword [var_28h], rax
│ 0x000016f6      488d05c20100.  lea rax, [fcn.000018bf]               ; 0x18bf
│ 0x000016fd      488945e0       mov qword [var_20h], rax
│ 0x00001701      488d05b70100.  lea rax, [fcn.000018bf]               ; 0x18bf
│ 0x00001708      488945e8       mov qword [var_18h], rax
│ 0x0000170c      488d05890000.  lea rax, [0x0000179c]
│ 0x00001713      488945f0       mov qword [var_10h], rax
│ 0x00001717      488d8550ffff.  lea rax, [var_b0h]
│ 0x0000171e      be00000000     mov esi, 0
│ 0x00001723      4889c7         mov rdi, rax
│ 0x00001726      e8c5f9ffff     call sym.imp.gettimeofday
│ 0x0000172b      8985f8feffff   mov dword [var_108h], eax
│ 0x00001731      0fa2           cpuid
│ 0x00001733      0f31           rdtsc
│ 0x00001735      8985fcfeffff   mov dword [var_104h], eax
│ 0x0000173b      899500ffffff   mov dword [var_100h], edx
│ 0x00001741      c785f4feffff.  mov dword [var_10ch], 0
│ 0x0000174b      e922030000     jmp 0x1a72
| ----------- true: 0x00001a72
│ ; CODE XREF from sym.getFibNo @ 0x1a79
│ 0x00001750      48c78548ffff.  mov qword [var_b8h], 0
│ 0x0000175b      488b8548ffff.  mov rax, qword [var_b8h]
│ 0x00001762      488b44c5b0     mov rax, qword [rbp + rax*8 - 0x50]
│ 0x00001767      90             nop
│ 0x00001768      ffe0           jmp rax

│ ; CODE XREF from sym.getFibNo @ 0x174b
│ 0x00001a72      83bdf4feffff.  cmp dword [var_10ch], 0
│ 0x00001a79      0f8ed1fcffff   jle 0x1750
| ----------- true: 0x00001750  false: 0x00001a7f
│ 0x00001a7f      0fa2           cpuid
│ 0x00001a81      0f31           rdtsc
│ 0x00001a83      898504ffffff   mov dword [var_fch], eax
│ ; DATA XREF from sym.key_i_nit @ 0x167f
│ 0x00001a89      899508ffffff   mov dword [var_f8h], edx
│ 0x00001a8f      8b8508ffffff   mov eax, dword [var_f8h]
│ 0x00001a95      48c1e020       shl rax, 0x20
│ 0x00001a99      4889c2         mov rdx, rax
│ ; DATA XREF from sym.combineCharMulti @ 0x15fd
│ 0x00001a9c      8b8504ffffff   mov eax, dword [var_fch]
│ 0x00001aa2      4809c2         or rdx, rax
│ 0x00001aa5      8b8500ffffff   mov eax, dword [var_100h]
│ 0x00001aab      48c1e020       shl rax, 0x20
│ 0x00001aaf      4889c1         mov rcx, rax
│ 0x00001ab2      8b85fcfeffff   mov eax, dword [var_104h]
│ 0x00001ab8      4809c8         or rax, rcx
│ 0x00001abb      4829c2         sub rdx, rax
│ 0x00001abe      4889d0         mov rax, rdx
│ 0x00001ac1      4885c0         test rax, rax
│ 0x00001ac4      7807           js 0x1acd
| ----------- true: 0x00001acd  false: 0x00001ac6
│ 0x00001ac6      f2480f2ac0     cvtsi2sd xmm0, rax
│ 0x00001acb      eb15           jmp 0x1ae2
| ----------- true: 0x00001ae2
│ ; CODE XREF from sym.getFibNo @ 0x1ac4
│ 0x00001acd      4889c2         mov rdx, rax
│ 0x00001ad0      48d1ea         shr rdx, 1
│ 0x00001ad3      83e001         and eax, 1
│ 0x00001ad6      4809c2         or rdx, rax
│ 0x00001ad9      f2480f2ac2     cvtsi2sd xmm0, rdx
│ 0x00001ade      f20f58c0       addsd xmm0, xmm0
| ----------- true: 0x00001ae2
│ ; CODE XREF from sym.getFibNo @ 0x1acb
│ 0x00001ae2      488d3d3f1600.  lea rdi, str.MEASURE_getFibNo_timingCounter__f_n ; 0x3128 ; "MEASURE,getFibNo,timingCounter,%f\n" ; const char *format
│ 0x00001ae9      b801000000     mov eax, 1
│ 0x00001aee      e8edf5ffff     call sym.imp.printf                   ; int printf(const char *format)
│ 0x00001af3      488d8560ffff.  lea rax, [var_a0h]
│ 0x00001afa      be00000000     mov esi, 0
│ 0x00001aff      4889c7         mov rdi, rax
│ 0x00001b02      e8e9f5ffff     call sym.imp.gettimeofday
│ 0x00001b07      89850cffffff   mov dword [var_f4h], eax
│ 0x00001b0d      488b8560ffff.  mov rax, qword [var_a0h]
│ 0x00001b14      488b9568ffff.  mov rdx, qword [var_98h]
│ 0x00001b1b      48894580       mov qword [var_80h], rax
│ 0x00001b1f      48895588       mov qword [var_78h], rdx
│ 0x00001b23      488b8550ffff.  mov rax, qword [var_b0h]
│ 0x00001b2a      488b9558ffff.  mov rdx, qword [var_a8h]
│ 0x00001b31      48894590       mov qword [var_70h], rax
│ 0x00001b35      48895598       mov qword [var_68h], rdx
│ 0x00001b39      488b5580       mov rdx, qword [var_80h]
│ 0x00001b3d      488b4590       mov rax, qword [var_70h]
│ 0x00001b41      4829c2         sub rdx, rax
│ 0x00001b44      4889d0         mov rax, rdx
│ 0x00001b47      48898570ffff.  mov qword [var_90h], rax
│ 0x00001b4e      488b5588       mov rdx, qword [var_78h]
│ 0x00001b52      488b4598       mov rax, qword [var_68h]
│ 0x00001b56      4829c2         sub rdx, rax
│ 0x00001b59      4889d0         mov rax, rdx
│ 0x00001b5c      48898578ffff.  mov qword [var_88h], rax
│ 0x00001b63      488b8578ffff.  mov rax, qword [var_88h]
│ 0x00001b6a      4885c0         test rax, rax
│ 0x00001b6d      7926           jns 0x1b95
| ----------- true: 0x00001b95  false: 0x00001b6f
│ 0x00001b6f      488b8570ffff.  mov rax, qword [var_90h]
│ 0x00001b76      4883e801       sub rax, 1
│ 0x00001b7a      48898570ffff.  mov qword [var_90h], rax
│ 0x00001b81      488b8578ffff.  mov rax, qword [var_88h]
│ 0x00001b88      480540420f00   add rax, 0xf4240
│ 0x00001b8e      48898578ffff.  mov qword [var_88h], rax
| ----------- true: 0x00001b95
│ ; CODE XREF from sym.getFibNo @ 0x1b6d
│ 0x00001b95      488b8570ffff.  mov rax, qword [var_90h]
│ 0x00001b9c      488b9578ffff.  mov rdx, qword [var_88h]
│ 0x00001ba3      488945a0       mov qword [var_60h], rax
│ 0x00001ba7      488955a8       mov qword [var_58h], rdx
│ 0x00001bab      488b45a0       mov rax, qword [var_60h]
│ 0x00001baf      f2480f2ac8     cvtsi2sd xmm1, rax
│ 0x00001bb4      488b45a8       mov rax, qword [var_58h]
│ 0x00001bb8      f2480f2ac0     cvtsi2sd xmm0, rax
│ 0x00001bbd      f20f10151316.  movsd xmm2, qword [0x000031d8]        ; [0x31d8:8]=0x412e848000000000
│ 0x00001bc5      f20f5ec2       divsd xmm0, xmm2
│ 0x00001bc9      f20f58c1       addsd xmm0, xmm1
│ 0x00001bcd      488d3d7c1500.  lea rdi, str.MEASURE_getFibNo_timingGetTimeOfDay__f_n ; 0x3150 ; "MEASURE,getFibNo,timingGetTimeOfDay,%f\n" ; const char *format
│ 0x00001bd4      b801000000     mov eax, 1
│ 0x00001bd9      e802f5ffff     call sym.imp.printf                   ; int printf(const char *format)
│ 0x00001bde      8b85f0feffff   mov eax, dword [var_110h]
│ 0x00001be4      488b7df8       mov rdi, qword [canary]
│ 0x00001be8      6448333c2528.  xor rdi, qword fs:[0x28]
│ 0x00001bf1      7405           je 0x1bf8
| ----------- true: 0x00001bf8  false: 0x00001bf3
│ 0x00001bf3      e8d8f4ffff     call sym.imp.__stack_chk_fail         ; void __stack_chk_fail(void)

│ ; CODE XREF from sym.getFibNo @ 0x1bf1
│ 0x00001bf8      c9             leave
└ 0x00001bf9      c3             ret

  ; CALL XREF from main @ 0x124b
┌ 292: sym.initTigress ();
│ ; var signed int64_t var_20h @ rbp-0x20
│ ; var int64_t var_1ch @ rbp-0x1c
│ ; var int64_t var_18h @ rbp-0x18
│ ; var int64_t var_14h @ rbp-0x14
│ ; var void *var_10h @ rbp-0x10
│ ; var void *var_8h @ rbp-0x8
│ 0x00001bfa      f30f1efa       endbr64
│ 0x00001bfe      55             push rbp
│ 0x00001bff      4889e5         mov rbp, rsp
│ 0x00001c02      4883ec20       sub rsp, 0x20
│ 0x00001c06      c745e4010000.  mov dword [var_1ch], 1
│ 0x00001c0d      bf18000000     mov edi, 0x18                         ; size_t size
│ 0x00001c12      e8f9f4ffff     call sym.imp.malloc                   ;  void *malloc(size_t size)
│ 0x00001c17      488945f0       mov qword [var_10h], rax
│ 0x00001c1b      488b45f0       mov rax, qword [var_10h]
│ 0x00001c1f      488b55f0       mov rdx, qword [var_10h]
│ 0x00001c23      48895008       mov qword [rax + 8], rdx
│ 0x00001c27      488b45f0       mov rax, qword [var_10h]
│ 0x00001c2b      488b55f0       mov rdx, qword [var_10h]
│ 0x00001c2f      488910         mov qword [rax], rdx
│ 0x00001c32      488b45f0       mov rax, qword [var_10h]
│ 0x00001c36      488905bb3400.  mov qword [obj._2_initTigress_1_opaque_list_1], rax ; [0x50f8:8]=0
│ 0x00001c3d      c745e0000000.  mov dword [var_20h], 0
│ 0x00001c44      e988000000     jmp 0x1cd1
| ----------- true: 0x00001cd1
│ ; CODE XREF from sym.initTigress @ 0x1cd5
│ 0x00001c49      bf18000000     mov edi, 0x18                         ; size_t size
│ 0x00001c4e      e8bdf4ffff     call sym.imp.malloc                   ;  void *malloc(size_t size)
│ 0x00001c53      488945f8       mov qword [var_8h], rax
│ 0x00001c57      8b45e0         mov eax, dword [var_20h]
│ 0x00001c5a      4898           cdqe
│ 0x00001c5c      89c1           mov ecx, eax
│ 0x00001c5e      488b05bb3300.  mov rax, qword [obj._1_entropy]       ; [0x5020:8]=0x6e88306f2d07d892
│ 0x00001c65      4883e0f5       and rax, 0xfffffffffffffff5
│ 0x00001c69      4889c2         mov rdx, rax
│ 0x00001c6c      488b05ad3300.  mov rax, qword [obj._1_entropy]       ; [0x5020:8]=0x6e88306f2d07d892
│ 0x00001c73      48f7d0         not rax
│ 0x00001c76      83e00a         and eax, 0xa
│ 0x00001c79      4829c2         sub rdx, rax
│ 0x00001c7c      4889d0         mov rax, rdx
│ 0x00001c7f      0fafc1         imul eax, ecx
│ 0x00001c82      89c2           mov edx, eax
│ 0x00001c84      488b45f8       mov rax, qword [var_8h]
│ 0x00001c88      895010         mov dword [rax + 0x10], edx
│ 0x00001c8b      488b05663400.  mov rax, qword [obj._2_initTigress_1_opaque_list_1] ; [0x50f8:8]=0
│ 0x00001c92      488b5008       mov rdx, qword [rax + 8]
│ 0x00001c96      488b45f8       mov rax, qword [var_8h]
│ 0x00001c9a      48895008       mov qword [rax + 8], rdx
│ 0x00001c9e      488b15533400.  mov rdx, qword [obj._2_initTigress_1_opaque_list_1] ; [0x50f8:8]=0
│ 0x00001ca5      488b45f8       mov rax, qword [var_8h]
│ 0x00001ca9      488910         mov qword [rax], rdx
│ 0x00001cac      488b05453400.  mov rax, qword [obj._2_initTigress_1_opaque_list_1] ; [0x50f8:8]=0
│ 0x00001cb3      488b4008       mov rax, qword [rax + 8]
│ 0x00001cb7      488b55f8       mov rdx, qword [var_8h]
│ 0x00001cbb      488910         mov qword [rax], rdx
│ 0x00001cbe      488b05333400.  mov rax, qword [obj._2_initTigress_1_opaque_list_1] ; [0x50f8:8]=0
│ 0x00001cc5      488b55f8       mov rdx, qword [var_8h]
│ 0x00001cc9      48895008       mov qword [rax + 8], rdx
│ 0x00001ccd      8345e001       add dword [var_20h], 1
| ----------- true: 0x00001cd1
│ ; CODE XREF from sym.initTigress @ 0x1c44
│ 0x00001cd1      837de003       cmp dword [var_20h], 3
│ 0x00001cd5      0f8e6effffff   jle 0x1c49
| ----------- true: 0x00001c49  false: 0x00001cdb
│ 0x00001cdb      488b05163400.  mov rax, qword [obj._2_initTigress_1_opaque_list_1] ; [0x50f8:8]=0
│ 0x00001ce2      488b4008       mov rax, qword [rax + 8]
│ 0x00001ce6      488905033400.  mov qword [obj._2_initTigress_1_opaque_ptr_1], rax ; [0x50f0:8]=0
│ 0x00001ced      488b05fc3300.  mov rax, qword [obj._2_initTigress_1_opaque_ptr_1] ; [0x50f0:8]=0
│ 0x00001cf4      488905ed3300.  mov qword [obj._2_initTigress_1_opaque_ptr_2], rax ; [0x50e8:8]=0
│ 0x00001cfb      488b05e63300.  mov rax, qword [obj._2_initTigress_1_opaque_ptr_2] ; [0x50e8:8]=0
│ 0x00001d02      488b4008       mov rax, qword [rax + 8]
│ 0x00001d06      488905db3300.  mov qword [obj._2_initTigress_1_opaque_ptr_2], rax ; [0x50e8:8]=0
│ 0x00001d0d      c745e8010000.  mov dword [var_18h], 1
│ 0x00001d14      c745ec010000.  mov dword [var_14h], 1
│ 0x00001d1b      90             nop
│ 0x00001d1c      c9             leave
└ 0x00001d1d      c3             ret

  ;-- section..fini:
  ;-- .fini:
┌ 13: sym._fini ();
│ 0x00002318      f30f1efa       endbr64                               ; [17] -r-x section size 13 named .fini
│ 0x0000231c      4883ec08       sub rsp, 8
│ 0x00002320      4883c408       add rsp, 8
└ 0x00002324      c3             ret

  ; CALL XREF from fcn.00001e85 @ 0x1f85
┌ 529: sym.combineCharMulti (int64_t arg1, int64_t arg2);
│ ; var int64_t var_d8h @ rbp-0xd8
│ ; var int64_t var_d4h @ rbp-0xd4
│ ; var int64_t var_d0h @ rbp-0xd0
│ ; var signed int64_t var_cch @ rbp-0xcc
│ ; var int64_t var_c8h @ rbp-0xc8
│ ; var int64_t var_c4h @ rbp-0xc4
│ ; var int64_t var_c0h @ rbp-0xc0
│ ; var int64_t var_bch @ rbp-0xbc
│ ; var int64_t var_b8h @ rbp-0xb8
│ ; var int64_t var_b4h @ rbp-0xb4
│ ; var int64_t var_98h @ rbp-0x98
│ ; var int64_t var_90h @ rbp-0x90
│ ; var int64_t var_88h @ rbp-0x88
│ ; var int64_t var_80h @ rbp-0x80
│ ; var int64_t var_78h @ rbp-0x78
│ ; var int64_t var_70h @ rbp-0x70
│ ; var int64_t var_68h @ rbp-0x68
│ ; var int64_t var_60h @ rbp-0x60
│ ; var int64_t var_58h @ rbp-0x58
│ ; var int64_t var_50h @ rbp-0x50
│ ; var int64_t var_48h @ rbp-0x48
│ ; var int64_t var_40h @ rbp-0x40
│ ; var int64_t var_38h @ rbp-0x38
│ ; var int64_t var_30h @ rbp-0x30
│ ; var int64_t var_28h @ rbp-0x28
│ ; var int64_t var_20h @ rbp-0x20
│ ; var int64_t var_18h @ rbp-0x18
│ ; var int64_t canary @ rbp-0x8
│ ; arg int64_t arg1 @ rdi
│ ; arg int64_t arg2 @ rsi
│ 0x0000130a      f30f1efa       endbr64
│ 0x0000130e      55             push rbp
│ 0x0000130f      4889e5         mov rbp, rsp
│ 0x00001312      4881ece00000.  sub rsp, 0xe0
│ 0x00001319      89fa           mov edx, edi                          ; arg1
│ 0x0000131b      89f0           mov eax, esi                          ; arg2
│ 0x0000131d      88952cffffff   mov byte [var_d4h], dl
│ 0x00001323      888528ffffff   mov byte [var_d8h], al
│ 0x00001329      64488b042528.  mov rax, qword fs:[0x28]
│ 0x00001332      488945f8       mov qword [canary], rax
│ 0x00001336      31c0           xor eax, eax
│ 0x00001338      488d05e80000.  lea rax, [fcn.00001427]               ; 0x1427
│ 0x0000133f      488945d0       mov qword [var_30h], rax
│ 0x00001343      488d056d0000.  lea rax, [fcn.000013b7]               ; 0x13b7
│ 0x0000134a      488945d8       mov qword [var_28h], rax
│ 0x0000134e      488d05fe0000.  lea rax, [0x00001453]
│ 0x00001355      488945e0       mov qword [var_20h], rax
│ 0x00001359      488d056a0000.  lea rax, [fcn.000013ca]               ; 0x13ca
│ 0x00001360      488945e8       mov qword [var_18h], rax
│ 0x00001364      488d8570ffff.  lea rax, [var_90h]
│ 0x0000136b      be00000000     mov esi, 0
│ 0x00001370      4889c7         mov rdi, rax
│ 0x00001373      e878fdffff     call sym.imp.gettimeofday
│ 0x00001378      898538ffffff   mov dword [var_c8h], eax
│ 0x0000137e      0fa2           cpuid
│ 0x00001380      0f31           rdtsc
│ 0x00001382      89853cffffff   mov dword [var_c4h], eax
│ 0x00001388      899540ffffff   mov dword [var_c0h], edx
│ 0x0000138e      c78534ffffff.  mov dword [var_cch], 0
│ 0x00001398      e929010000     jmp 0x14c6
| ----------- true: 0x000014c6
│ ; CODE XREF from sym.combineCharMulti @ 0x14cd
│ 0x0000139d      48c78568ffff.  mov qword [var_98h], 2
│ 0x000013a8      488b8568ffff.  mov rax, qword [var_98h]
│ 0x000013af      488b44c5d0     mov rax, qword [rbp + rax*8 - 0x30]
│ 0x000013b4      90             nop
│ 0x000013b5      ffe0           jmp rax

│ ; CODE XREF from sym.combineCharMulti @ 0x1398
│ 0x000014c6      83bd34ffffff.  cmp dword [var_cch], 0
│ 0x000014cd      0f8ecafeffff   jle 0x139d
| ----------- true: 0x0000139d  false: 0x000014d3
│ 0x000014d3      0fa2           cpuid
│ 0x000014d5      0f31           rdtsc
│ 0x000014d7      898544ffffff   mov dword [var_bch], eax
│ 0x000014dd      899548ffffff   mov dword [var_b8h], edx
│ 0x000014e3      8b8548ffffff   mov eax, dword [var_b8h]
│ 0x000014e9      48c1e020       shl rax, 0x20
│ 0x000014ed      4889c2         mov rdx, rax
│ 0x000014f0      8b8544ffffff   mov eax, dword [var_bch]
│ 0x000014f6      4809c2         or rdx, rax
│ 0x000014f9      8b8540ffffff   mov eax, dword [var_c0h]
│ 0x000014ff      48c1e020       shl rax, 0x20
│ 0x00001503      4889c1         mov rcx, rax
│ 0x00001506      8b853cffffff   mov eax, dword [var_c4h]
│ 0x0000150c      4809c8         or rax, rcx
│ 0x0000150f      4829c2         sub rdx, rax
│ 0x00001512      4889d0         mov rax, rdx
│ 0x00001515      4885c0         test rax, rax
│ 0x00001518      7807           js 0x1521
| ----------- true: 0x00001521  false: 0x0000151a
│ 0x0000151a      f2480f2ac0     cvtsi2sd xmm0, rax
│ 0x0000151f      eb15           jmp 0x1536
| ----------- true: 0x00001536
│ ; CODE XREF from sym.combineCharMulti @ 0x1518
│ 0x00001521      4889c2         mov rdx, rax
│ 0x00001524      48d1ea         shr rdx, 1
│ 0x00001527      83e001         and eax, 1
│ 0x0000152a      4809c2         or rdx, rax
│ 0x0000152d      f2480f2ac2     cvtsi2sd xmm0, rdx
│ 0x00001532      f20f58c0       addsd xmm0, xmm0
| ----------- true: 0x00001536
│ ; CODE XREF from sym.combineCharMulti @ 0x151f
│ 0x00001536      488d3d331b00.  lea rdi, str.MEASURE_combineCharMulti_timingCounter__f_n ; 0x3070 ; "MEASURE,combineCharMulti,timingCounter,%f\n" ; const char *format
│ 0x0000153d      b801000000     mov eax, 1
│ 0x00001542      e899fbffff     call sym.imp.printf                   ; int printf(const char *format)
│ 0x00001547      488d4580       lea rax, [var_80h]
│ 0x0000154b      be00000000     mov esi, 0
│ 0x00001550      4889c7         mov rdi, rax
│ 0x00001553      e898fbffff     call sym.imp.gettimeofday
│ 0x00001558      89854cffffff   mov dword [var_b4h], eax
│ 0x0000155e      488b4580       mov rax, qword [var_80h]
│ 0x00001562      488b5588       mov rdx, qword [var_78h]
│ 0x00001566      488945a0       mov qword [var_60h], rax
│ 0x0000156a      488955a8       mov qword [var_58h], rdx
│ 0x0000156e      488b8570ffff.  mov rax, qword [var_90h]
│ 0x00001575      488b9578ffff.  mov rdx, qword [var_88h]
│ ; DATA XREF from sym.getFibNo @ 0x1bcd
│ 0x0000157c      488945b0       mov qword [var_50h], rax
│ 0x00001580      488955b8       mov qword [var_48h], rdx
│ 0x00001584      488b55a0       mov rdx, qword [var_60h]
│ 0x00001588      488b45b0       mov rax, qword [var_50h]
│ 0x0000158c      4829c2         sub rdx, rax
│ 0x0000158f      4889d0         mov rax, rdx
│ 0x00001592      48894590       mov qword [var_70h], rax
│ 0x00001596      488b55a8       mov rdx, qword [var_58h]
│ 0x0000159a      488b45b8       mov rax, qword [var_48h]
│ 0x0000159e      4829c2         sub rdx, rax
│ 0x000015a1      4889d0         mov rax, rdx
│ 0x000015a4      48894598       mov qword [var_68h], rax
│ 0x000015a8      488b4598       mov rax, qword [var_68h]
│ 0x000015ac      4885c0         test rax, rax
│ 0x000015af      791a           jns 0x15cb
| ----------- true: 0x000015cb  false: 0x000015b1
│ 0x000015b1      488b4590       mov rax, qword [var_70h]
│ 0x000015b5      4883e801       sub rax, 1
│ 0x000015b9      48894590       mov qword [var_70h], rax
│ 0x000015bd      488b4598       mov rax, qword [var_68h]
│ 0x000015c1      480540420f00   add rax, 0xf4240
│ 0x000015c7      48894598       mov qword [var_68h], rax
| ----------- true: 0x000015cb
│ ; CODE XREF from sym.combineCharMulti @ 0x15af
│ 0x000015cb      488b4590       mov rax, qword [var_70h]
│ 0x000015cf      488b5598       mov rdx, qword [var_68h]
│ 0x000015d3      488945c0       mov qword [var_40h], rax
│ 0x000015d7      488955c8       mov qword [var_38h], rdx
│ 0x000015db      488b45c0       mov rax, qword [var_40h]
│ 0x000015df      f2480f2ac8     cvtsi2sd xmm1, rax
│ 0x000015e4      488b45c8       mov rax, qword [var_38h]
│ 0x000015e8      f2480f2ac0     cvtsi2sd xmm0, rax
│ 0x000015ed      f20f1015e31b.  movsd xmm2, qword [0x000031d8]        ; [0x31d8:8]=0x412e848000000000
│ 0x000015f5      f20f5ec2       divsd xmm0, xmm2
│ 0x000015f9      f20f58c1       addsd xmm0, xmm1
│ 0x000015fd      488d3d9c1a00.  lea rdi, str.MEASURE_combineCharMulti_timingGetTimeOfDay__f_n ; 0x30a0 ; "MEASURE,combineCharMulti,timingGetTimeOfDay,%f\n" ; const char *format
│ 0x00001604      b801000000     mov eax, 1
│ 0x00001609      e8d2faffff     call sym.imp.printf                   ; int printf(const char *format)
│ 0x0000160e      8b8530ffffff   mov eax, dword [var_d0h]
│ 0x00001614      488b75f8       mov rsi, qword [canary]
│ 0x00001618      644833342528.  xor rsi, qword fs:[0x28]
│ 0x00001621      7405           je 0x1628
| ----------- true: 0x00001628  false: 0x00001623
│ 0x00001623      e8a8faffff     call sym.imp.__stack_chk_fail         ; void __stack_chk_fail(void)

│ ; CODE XREF from sym.combineCharMulti @ 0x1621
│ 0x00001628      c9             leave
└ 0x00001629      c3             ret

  ; XREFS: CALL 0x0000143f  CALL 0x0000147e  CALL 0x000014a9  CALL 0x00001782  CALL 0x0000180f  CALL 0x0000184f  
  ; XREFS: CALL 0x0000187d  CALL 0x000018ff  CALL 0x00001a1f  CALL 0x00001a50  CALL 0x00001e45  CALL 0x00001e71  
  ; XREFS: CALL 0x00001e9d  CALL 0x00002020  CALL 0x0000205f  CALL 0x00002090  CALL 0x000020cf  
┌ 23: sym._3_bf_1 (int64_t arg1, int64_t arg_8h);
│ ; var int64_t var_8h @ rbp-0x8
│ ; arg int64_t arg_8h @ rbp+0x8
│ ; arg int64_t arg1 @ rdi
│ 0x0000226f      f30f1efa       endbr64
│ 0x00002273      55             push rbp
│ 0x00002274      4889e5         mov rbp, rsp
│ 0x00002277      48897df8       mov qword [var_8h], rdi               ; arg1
│ 0x0000227b      488b45f8       mov rax, qword [var_8h]
│ 0x0000227f      48894508       mov qword [arg_8h], rax
│ 0x00002283      90             nop
│ 0x00002284      5d             pop rbp
└ 0x00002285      c3             ret

  ; DATA XREF from entry0 @ 0x113a
┌ 101: sym.__libc_csu_init (int64_t arg1, int64_t arg2, int64_t arg3);
│ ; arg int64_t arg1 @ rdi
│ ; arg int64_t arg2 @ rsi
│ ; arg int64_t arg3 @ rdx
│ 0x000022a0      f30f1efa       endbr64
│ 0x000022a4      4157           push r15
│ 0x000022a6      4c8d3ddb2a00.  lea r15, obj.__frame_dummy_init_array_entry ; loc.__init_array_start
│                                                                      ; 0x4d88
│ 0x000022ad      4156           push r14
│ 0x000022af      4989d6         mov r14, rdx                          ; arg3
│ 0x000022b2      4155           push r13
│ 0x000022b4      4989f5         mov r13, rsi                          ; arg2
│ 0x000022b7      4154           push r12
│ 0x000022b9      4189fc         mov r12d, edi                         ; arg1
│ 0x000022bc      55             push rbp
│ 0x000022bd      488d2dcc2a00.  lea rbp, obj.__do_global_dtors_aux_fini_array_entry ; loc.__init_array_end
│                                                                      ; 0x4d90
│ 0x000022c4      53             push rbx
│ 0x000022c5      4c29fd         sub rbp, r15
│ 0x000022c8      4883ec08       sub rsp, 8
│ 0x000022cc      e82fedffff     call sym._init
│ 0x000022d1      48c1fd03       sar rbp, 3
│ 0x000022d5      741f           je 0x22f6
| ----------- true: 0x000022f6  false: 0x000022d7
│ 0x000022d7      31db           xor ebx, ebx
│ 0x000022d9      0f1f80000000.  nop dword [rax]
| ----------- true: 0x000022e0
│ ; CODE XREF from sym.__libc_csu_init @ 0x22f4
│ 0x000022e0      4c89f2         mov rdx, r14
│ 0x000022e3      4c89ee         mov rsi, r13
│ 0x000022e6      4489e7         mov edi, r12d
│ 0x000022e9      41ff14df       call qword [r15 + rbx*8]
│ 0x000022ed      4883c301       add rbx, 1
│ 0x000022f1      4839dd         cmp rbp, rbx
│ 0x000022f4      75ea           jne 0x22e0
| ----------- true: 0x000022e0  false: 0x000022f6
│ ; CODE XREF from sym.__libc_csu_init @ 0x22d5
│ 0x000022f6      4883c408       add rsp, 8
│ 0x000022fa      5b             pop rbx
│ 0x000022fb      5d             pop rbp
│ 0x000022fc      415c           pop r12
│ 0x000022fe      415d           pop r13
│ 0x00002300      415e           pop r14
│ 0x00002302      415f           pop r15
└ 0x00002304      c3             ret

  ; DATA XREF from entry0 @ 0x1141
┌ 257: int main (uint32_t argc, char **argv, char **envp);
│ ; var char **var_48h @ rbp-0x48
│ ; var char **var_40h @ rbp-0x40
│ ; var uint32_t var_34h @ rbp-0x34
│ ; var int64_t var_24h @ rbp-0x24
│ ; var char *s @ rbp-0x20
│ ; var size_t var_18h @ rbp-0x18
│ ; var void *var_10h @ rbp-0x10
│ ; var char *ptr @ rbp-0x8
│ ; arg uint32_t argc @ rdi
│ ; arg char **argv @ rsi
│ ; arg char **envp @ rdx
│ 0x00001209      f30f1efa       endbr64
│ 0x0000120d      55             push rbp
│ 0x0000120e      4889e5         mov rbp, rsp
│ 0x00001211      4883ec50       sub rsp, 0x50
│ 0x00001215      897dcc         mov dword [var_34h], edi              ; argc
│ 0x00001218      488975c0       mov qword [var_40h], rsi              ; argv
│ 0x0000121c      488955b8       mov qword [var_48h], rdx              ; envp
│ 0x00001220      e81e040000     call sym.megaInit
│ 0x00001225      8b45cc         mov eax, dword [var_34h]
│ 0x00001228      89059a3e0000   mov dword [obj._global_argc], eax     ; [0x50c8:4]=0
│ 0x0000122e      488b45c0       mov rax, qword [var_40h]
│ 0x00001232      488905873e00.  mov qword [obj._global_argv], rax     ; [0x50c0:8]=0
│ 0x00001239      488b45b8       mov rax, qword [var_48h]
│ 0x0000123d      488905943e00.  mov qword [obj._global_envp], rax     ; [0x50d8:8]=0
│ 0x00001244      c745dc010000.  mov dword [var_24h], 1
│ 0x0000124b      e8aa090000     call sym.initTigress
│ 0x00001250      488d05b11d00.  lea rax, [0x00003008]
│ 0x00001257      488945e0       mov qword [s], rax
│ 0x0000125b      837dcc02       cmp dword [var_34h], 2
│ 0x0000125f      750c           jne 0x126d
| ----------- true: 0x0000126d  false: 0x00001261
│ 0x00001261      488b45c0       mov rax, qword [var_40h]
│ 0x00001265      488b4008       mov rax, qword [rax + 8]
│ 0x00001269      488945e0       mov qword [s], rax
| ----------- true: 0x0000126d
│ ; CODE XREF from main @ 0x125f
│ 0x0000126d      488b45e0       mov rax, qword [s]
│ 0x00001271      4889c7         mov rdi, rax                          ; const char *s
│ 0x00001274      e847feffff     call sym.imp.strlen                   ; size_t strlen(const char *s)
│ 0x00001279      488945e8       mov qword [var_18h], rax
│ 0x0000127d      48837de802     cmp qword [var_18h], 2
│ 0x00001282      7725           ja 0x12a9
| ----------- true: 0x000012a9  false: 0x00001284
│ 0x00001284      8b15863e0000   mov edx, dword [obj.minLengthUser]    ; [0x5110:4]=3
│ 0x0000128a      488b45e0       mov rax, qword [s]
│ 0x0000128e      4889c6         mov rsi, rax
│ 0x00001291      488d3d781d00.  lea rdi, str.Error:_Username___s__is_too_short._Minimum_length:__i_n ; 0x3010 ; "Error: Username \"%s\" is too short. Minimum length: %i\n" ; const char *format
│ 0x00001298      b800000000     mov eax, 0
│ 0x0000129d      e83efeffff     call sym.imp.printf                   ; int printf(const char *format)
│ 0x000012a2      b8ffffffff     mov eax, 0xffffffff                   ; -1
│ 0x000012a7      eb5f           jmp 0x1308
| ----------- true: 0x00001308
│ ; CODE XREF from main @ 0x1282
│ 0x000012a9      8b05513e0000   mov eax, dword [obj.keyLength]        ; [0x5100:4]=10 ; "\n"
│ 0x000012af      83c001         add eax, 1
│ 0x000012b2      89c0           mov eax, eax
│ 0x000012b4      4889c7         mov rdi, rax                          ; size_t size
│ 0x000012b7      e854feffff     call sym.imp.malloc                   ;  void *malloc(size_t size)
│ 0x000012bc      488945f0       mov qword [var_10h], rax
│ 0x000012c0      488b45f0       mov rax, qword [var_10h]
│ 0x000012c4      488945f8       mov qword [ptr], rax
│ 0x000012c8      488b55f8       mov rdx, qword [ptr]
│ 0x000012cc      488b45e0       mov rax, qword [s]
│ 0x000012d0      4889d6         mov rsi, rdx                          ; int64_t arg2
│ 0x000012d3      4889c7         mov rdi, rax                          ; int64_t arg1
│ 0x000012d6      e8430a0000     call sym.generateLicense
│ 0x000012db      488b55f8       mov rdx, qword [ptr]
│ 0x000012df      488b45e0       mov rax, qword [s]
│ 0x000012e3      4889c6         mov rsi, rax
│ 0x000012e6      488d3d5b1d00.  lea rdi, str.The_license_for_the_user___s__is___s__n ; 0x3048 ; "The license for the user \"%s\" is \"%s\"\n" ; const char *format
│ 0x000012ed      b800000000     mov eax, 0
│ 0x000012f2      e8e9fdffff     call sym.imp.printf                   ; int printf(const char *format)
│ 0x000012f7      488b45f8       mov rax, qword [ptr]
│ 0x000012fb      4889c7         mov rdi, rax                          ; void *ptr
│ 0x000012fe      e8adfdffff     call sym.imp.free                     ; void free(void *ptr)
│ 0x00001303      b800000000     mov eax, 0
| ----------- true: 0x00001308
│ ; CODE XREF from main @ 0x12a7
│ 0x00001308      c9             leave
└ 0x00001309      c3             ret

  ; CALL XREF from main @ 0x12d6
┌ 602: sym.generateLicense (char *arg1, void *arg2);
│ ; var void *var_150h @ rbp-0x150
│ ; var char *var_148h @ rbp-0x148
│ ; var signed int64_t var_130h @ rbp-0x130
│ ; var int64_t var_12ch @ rbp-0x12c
│ ; var int64_t var_128h @ rbp-0x128
│ ; var int64_t var_124h @ rbp-0x124
│ ; var int64_t var_120h @ rbp-0x120
│ ; var int64_t var_11ch @ rbp-0x11c
│ ; var int64_t var_118h @ rbp-0x118
│ ; var int64_t var_d0h @ rbp-0xd0
│ ; var int64_t var_b0h @ rbp-0xb0
│ ; var int64_t var_a8h @ rbp-0xa8
│ ; var int64_t var_a0h @ rbp-0xa0
│ ; var int64_t var_98h @ rbp-0x98
│ ; var int64_t var_90h @ rbp-0x90
│ ; var int64_t var_88h @ rbp-0x88
│ ; var int64_t var_80h @ rbp-0x80
│ ; var int64_t var_78h @ rbp-0x78
│ ; var int64_t var_70h @ rbp-0x70
│ ; var int64_t var_68h @ rbp-0x68
│ ; var int64_t var_60h @ rbp-0x60
│ ; var int64_t var_58h @ rbp-0x58
│ ; var int64_t var_50h @ rbp-0x50
│ ; var int64_t var_48h @ rbp-0x48
│ ; var int64_t var_40h @ rbp-0x40
│ ; var int64_t var_38h @ rbp-0x38
│ ; var int64_t var_30h @ rbp-0x30
│ ; var int64_t var_28h @ rbp-0x28
│ ; var int64_t var_20h @ rbp-0x20
│ ; var int64_t var_18h @ rbp-0x18
│ ; var int64_t canary @ rbp-0x8
│ ; arg char *arg1 @ rdi
│ ; arg void *arg2 @ rsi
│ 0x00001d1e      f30f1efa       endbr64
│ 0x00001d22      55             push rbp
│ 0x00001d23      4889e5         mov rbp, rsp
│ 0x00001d26      4881ec500100.  sub rsp, 0x150
│ 0x00001d2d      4889bdb8feff.  mov qword [var_148h], rdi             ; arg1
│ 0x00001d34      4889b5b0feff.  mov qword [var_150h], rsi             ; arg2
│ 0x00001d3b      64488b042528.  mov rax, qword fs:[0x28]
│ 0x00001d44      488945f8       mov qword [canary], rax
│ 0x00001d48      31c0           xor eax, eax
│ 0x00001d4a      488d05560300.  lea rax, [fcn.000020a7]               ; 0x20a7
│ 0x00001d51      488945b0       mov qword [var_50h], rax
│ 0x00001d55      488d054b0300.  lea rax, [fcn.000020a7]               ; 0x20a7
│ 0x00001d5c      488945b8       mov qword [var_48h], rax
│ 0x00001d60      488d05400300.  lea rax, [fcn.000020a7]               ; 0x20a7
│ 0x00001d67      488945c0       mov qword [var_40h], rax
│ 0x00001d6b      488d05130100.  lea rax, [fcn.00001e85]               ; 0x1e85
│ 0x00001d72      488945c8       mov qword [var_38h], rax
│ 0x00001d76      488d05780000.  lea rax, [fcn.00001df5]               ; 0x1df5
│ 0x00001d7d      488945d0       mov qword [var_30h], rax
│ 0x00001d81      488d05ac0200.  lea rax, [fcn.00002034]               ; 0x2034
│ 0x00001d88      488945d8       mov qword [var_28h], rax
│ 0x00001d8c      488d05250100.  lea rax, [0x00001eb8]
│ 0x00001d93      488945e0       mov qword [var_20h], rax
│ 0x00001d97      488d050f0300.  lea rax, [fcn.000020ad]               ; 0x20ad
│ 0x00001d9e      488945e8       mov qword [var_18h], rax
│ 0x00001da2      488d8550ffff.  lea rax, [var_b0h]
│ 0x00001da9      be00000000     mov esi, 0
│ 0x00001dae      4889c7         mov rdi, rax
│ ; DATA XREF from main @ 0x1250
│ 0x00001db1      e83af3ffff     call sym.imp.gettimeofday
│ 0x00001db6      8985d4feffff   mov dword [var_12ch], eax
│ 0x00001dbc      0fa2           cpuid
│ 0x00001dbe      0f31           rdtsc
│ 0x00001dc0      8985d8feffff   mov dword [var_128h], eax
│ 0x00001dc6      8995dcfeffff   mov dword [var_124h], edx
│ 0x00001dcc      c785d0feffff.  mov dword [var_130h], 0
│ 0x00001dd6      e911030000     jmp 0x20ec
| ----------- true: 0x000020ec
│ ; CODE XREF from sym.generateLicense @ 0x20f3
│ 0x00001ddb      48c78530ffff.  mov qword [var_d0h], 7
│ 0x00001de6      488b8530ffff.  mov rax, qword [var_d0h]
│ 0x00001ded      488b44c5b0     mov rax, qword [rbp + rax*8 - 0x50]
│ 0x00001df2      90             nop
│ 0x00001df3      ffe0           jmp rax

│ ; CODE XREF from sym.generateLicense @ 0x1dd6
│ 0x000020ec      83bdd0feffff.  cmp dword [var_130h], 0
│ 0x000020f3      0f8ee2fcffff   jle 0x1ddb
| ----------- true: 0x00001ddb  false: 0x000020f9
│ 0x000020f9      0fa2           cpuid
│ 0x000020fb      0f31           rdtsc
│ 0x000020fd      8985e0feffff   mov dword [var_120h], eax
│ 0x00002103      8995e4feffff   mov dword [var_11ch], edx
│ 0x00002109      8b85e4feffff   mov eax, dword [var_11ch]
│ 0x0000210f      48c1e020       shl rax, 0x20
│ 0x00002113      4889c2         mov rdx, rax
│ 0x00002116      8b85e0feffff   mov eax, dword [var_120h]
│ 0x0000211c      4809c2         or rdx, rax
│ 0x0000211f      8b85dcfeffff   mov eax, dword [var_124h]
│ 0x00002125      48c1e020       shl rax, 0x20
│ 0x00002129      4889c1         mov rcx, rax
│ 0x0000212c      8b85d8feffff   mov eax, dword [var_128h]
│ 0x00002132      4809c8         or rax, rcx
│ 0x00002135      4829c2         sub rdx, rax
│ 0x00002138      4889d0         mov rax, rdx
│ 0x0000213b      4885c0         test rax, rax
│ 0x0000213e      7807           js 0x2147
| ----------- true: 0x00002147  false: 0x00002140
│ 0x00002140      f2480f2ac0     cvtsi2sd xmm0, rax
│ 0x00002145      eb15           jmp 0x215c
| ----------- true: 0x0000215c
│ ; CODE XREF from sym.generateLicense @ 0x213e
│ 0x00002147      4889c2         mov rdx, rax
│ 0x0000214a      48d1ea         shr rdx, 1
│ 0x0000214d      83e001         and eax, 1
│ 0x00002150      4809c2         or rdx, rax
│ 0x00002153      f2480f2ac2     cvtsi2sd xmm0, rdx
│ 0x00002158      f20f58c0       addsd xmm0, xmm0
| ----------- true: 0x0000215c
│ ; CODE XREF from sym.generateLicense @ 0x2145
│ 0x0000215c      488d3d151000.  lea rdi, str.MEASURE_generateLicense_timingCounter__f_n ; 0x3178 ; "MEASURE,generateLicense,timingCounter,%f\n" ; const char *format
│ 0x00002163      b801000000     mov eax, 1
│ 0x00002168      e873efffff     call sym.imp.printf                   ; int printf(const char *format)
│ 0x0000216d      488d8560ffff.  lea rax, [var_a0h]
│ 0x00002174      be00000000     mov esi, 0
│ 0x00002179      4889c7         mov rdi, rax
│ 0x0000217c      e86fefffff     call sym.imp.gettimeofday
│ 0x00002181      8985e8feffff   mov dword [var_118h], eax
│ 0x00002187      488b8560ffff.  mov rax, qword [var_a0h]
│ 0x0000218e      488b9568ffff.  mov rdx, qword [var_98h]
│ 0x00002195      48894580       mov qword [var_80h], rax
│ 0x00002199      48895588       mov qword [var_78h], rdx
│ 0x0000219d      488b8550ffff.  mov rax, qword [var_b0h]
│ 0x000021a4      488b9558ffff.  mov rdx, qword [var_a8h]
│ 0x000021ab      48894590       mov qword [var_70h], rax
│ 0x000021af      48895598       mov qword [var_68h], rdx
│ 0x000021b3      488b5580       mov rdx, qword [var_80h]
│ 0x000021b7      488b4590       mov rax, qword [var_70h]
│ 0x000021bb      4829c2         sub rdx, rax
│ 0x000021be      4889d0         mov rax, rdx
│ 0x000021c1      48898570ffff.  mov qword [var_90h], rax
│ 0x000021c8      488b5588       mov rdx, qword [var_78h]
│ 0x000021cc      488b4598       mov rax, qword [var_68h]
│ 0x000021d0      4829c2         sub rdx, rax
│ 0x000021d3      4889d0         mov rax, rdx
│ 0x000021d6      48898578ffff.  mov qword [var_88h], rax
│ 0x000021dd      488b8578ffff.  mov rax, qword [var_88h]
│ 0x000021e4      4885c0         test rax, rax
│ 0x000021e7      7926           jns 0x220f
| ----------- true: 0x0000220f  false: 0x000021e9
│ 0x000021e9      488b8570ffff.  mov rax, qword [var_90h]
│ 0x000021f0      4883e801       sub rax, 1
│ 0x000021f4      48898570ffff.  mov qword [var_90h], rax
│ 0x000021fb      488b8578ffff.  mov rax, qword [var_88h]
│ 0x00002202      480540420f00   add rax, 0xf4240
│ 0x00002208      48898578ffff.  mov qword [var_88h], rax
| ----------- true: 0x0000220f
│ ; CODE XREF from sym.generateLicense @ 0x21e7
│ 0x0000220f      488b8570ffff.  mov rax, qword [var_90h]
│ 0x00002216      488b9578ffff.  mov rdx, qword [var_88h]
│ 0x0000221d      488945a0       mov qword [var_60h], rax
│ 0x00002221      488955a8       mov qword [var_58h], rdx
│ 0x00002225      488b45a0       mov rax, qword [var_60h]
│ 0x00002229      f2480f2ac8     cvtsi2sd xmm1, rax
│ 0x0000222e      488b45a8       mov rax, qword [var_58h]
│ 0x00002232      f2480f2ac0     cvtsi2sd xmm0, rax
│ 0x00002237      f20f1015990f.  movsd xmm2, qword [0x000031d8]        ; [0x31d8:8]=0x412e848000000000
│ 0x0000223f      f20f5ec2       divsd xmm0, xmm2
│ 0x00002243      f20f58c1       addsd xmm0, xmm1
│ 0x00002247      488d3d5a0f00.  lea rdi, str.MEASURE_generateLicense_timingGetTimeOfDay__f_n ; 0x31a8 ; "MEASURE,generateLicense,timingGetTimeOfDay,%f\n" ; const char *format
│ 0x0000224e      b801000000     mov eax, 1
│ 0x00002253      e888eeffff     call sym.imp.printf                   ; int printf(const char *format)
│ 0x00002258      90             nop
│ 0x00002259      488b45f8       mov rax, qword [canary]
│ 0x0000225d      644833042528.  xor rax, qword fs:[0x28]
│ 0x00002266      7405           je 0x226d
| ----------- true: 0x0000226d  false: 0x00002268
│ 0x00002268      e863eeffff     call sym.imp.__stack_chk_fail         ; void __stack_chk_fail(void)

│ ; CODE XREF from sym.generateLicense @ 0x2266
│ 0x0000226d      c9             leave
└ 0x0000226e      c3             ret

  ; CALL XREF from main @ 0x12fe
  ;-- section..plt.sec:
  ;-- .plt.sec:
┌ 11: void sym.imp.free (void *ptr);
│ 0x000010b0      f30f1efa       endbr64                               ; [15] -r-x section size 112 named .plt.sec
└ 0x000010b4      f2ff25e53e00.  bnd jmp qword [loc._end]              ; [0x4fa0:8]=0x5120 loc._end

  ; CALL XREF from main @ 0x1274
  ; CALL XREFS from fcn.00001e85 @ 0x1f00, 0x1f3d, 0x1f9a
┌ 11: size_t sym.imp.strlen (const char *s);
│ 0x000010c0      f30f1efa       endbr64
└ 0x000010c4      f2ff25dd3e00.  bnd jmp qword [reloc.strlen]          ; [0x4fa8:8]=0x5128 reloc.strlen

  ; CALL XREF from sym.combineCharMulti @ 0x1623
  ; CALL XREF from sym.getFibNo @ 0x1bf3
  ; CALL XREF from sym.generateLicense @ 0x2268
┌ 11: void sym.imp.__stack_chk_fail ();
│ 0x000010d0      f30f1efa       endbr64
└ 0x000010d4      f2ff25d53e00.  bnd jmp qword [reloc.__stack_chk_fail] ; [0x4fb0:8]=0x5130 reloc.__stack_chk_fail

  ; XREFS: CALL 0x0000129d  CALL 0x000012f2  CALL 0x00001542  CALL 0x00001609  CALL 0x00001aee  CALL 0x00001bd9  
  ; XREFS: CALL 0x00002168  CALL 0x00002253  
┌ 11: int sym.imp.printf (const char *format);
│ 0x000010e0      f30f1efa       endbr64
└ 0x000010e4      f2ff25cd3e00.  bnd jmp qword [reloc.printf]          ; [0x4fb8:8]=0x5138 reloc.printf

  ; XREFS: CALL 0x00001373  CALL 0x00001553  CALL 0x00001726  CALL 0x00001b02  CALL 0x00001db1  CALL 0x0000217c  
┌ 11: sym.imp.gettimeofday ();
│ 0x000010f0      f30f1efa       endbr64
└ 0x000010f4      f2ff25c53e00.  bnd jmp qword [reloc.gettimeofday]    ; [0x4fc0:8]=0x5140 reloc.gettimeofday

  ; CALL XREF from fcn.00001e85 @ 0x1fe9
┌ 11: char *sym.imp.strncat (char *s1, const char *s2, size_t n);
│ 0x00001100      f30f1efa       endbr64
└ 0x00001104      f2ff25bd3e00.  bnd jmp qword [reloc.strncat]         ; [0x4fc8:8]=0x5148 reloc.strncat

  ; CALL XREF from main @ 0x12b7
  ; CALL XREFS from sym.initTigress @ 0x1c12, 0x1c4e
┌ 11:  void *sym.imp.malloc (size_t size);
│ 0x00001110      f30f1efa       endbr64
└ 0x00001114      f2ff25b53e00.  bnd jmp qword [reloc.malloc]          ; [0x4fd0:8]=0x5150 reloc.malloc

│ ; XREFS: CODE 0x00001039  CODE 0x00001049  CODE 0x00001059  CODE 0x00001069  CODE 0x00001079  CODE 0x00001089  
│ ; XREFS: CODE 0x00001099  
│ ;-- section..plt:
│ ;-- .plt:
│ 0x00001020      ff356a3f0000   push qword [0x00004f90]               ; [13] -r-x section size 128 named .plt
│ 0x00001026      f2ff256b3f00.  bnd jmp qword [0x00004f98]            ; [0x4f98:8]=0

┌ 28: fcn.00001030 ();
│ 0x00001030      f30f1efa       endbr64
│ 0x00001034      6800000000     push 0
│ 0x00001039      f2e9e1ffffff   bnd jmp sym..plt
| ----------- true: 0x00001020
┌ 15: fcn.00001040 ();
│ 0x00001040      f30f1efa       endbr64
│ 0x00001044      6801000000     push 1
└ 0x00001049      f2e9d1ffffff   bnd jmp sym..plt                      ; fcn.00001030-0x10
| ----------- true: 0x00001020
┌ 15: fcn.00001050 ();
│ 0x00001050      f30f1efa       endbr64
│ 0x00001054      6802000000     push 2
└ 0x00001059      f2e9c1ffffff   bnd jmp sym..plt                      ; fcn.00001030-0x10
| ----------- true: 0x00001020
┌ 15: fcn.00001060 ();
│ 0x00001060      f30f1efa       endbr64
│ 0x00001064      6803000000     push 3
└ 0x00001069      f2e9b1ffffff   bnd jmp sym..plt                      ; fcn.00001030-0x10
| ----------- true: 0x00001020
┌ 15: fcn.00001070 ();
│ 0x00001070      f30f1efa       endbr64
│ 0x00001074      6804000000     push 4
└ 0x00001079      f2e9a1ffffff   bnd jmp sym..plt                      ; fcn.00001030-0x10
| ----------- true: 0x00001020
┌ 15: fcn.00001080 ();
│ 0x00001080      f30f1efa       endbr64
│ 0x00001084      6805000000     push 5
└ 0x00001089      f2e991ffffff   bnd jmp sym..plt                      ; fcn.00001030-0x10
| ----------- true: 0x00001020
┌ 15: fcn.00001090 ();
│ 0x00001090      f30f1efa       endbr64
│ 0x00001094      6806000000     push 6
└ 0x00001099      f2e981ffffff   bnd jmp sym..plt                      ; fcn.00001030-0x10
| ----------- true: 0x00001020
  ; DATA XREF from sym.combineCharMulti @ 0x1343
  ; DATA XREF from fcn.00001427 @ 0x1435
┌ 26: fcn.000013b7 ();
│ ; var int64_t var_d0h @ rbp-0xd0
│ ; var int64_t var_cch @ rbp-0xcc
│ 0x000013b7      f30f1efa       endbr64
│ 0x000013bb      c78530ffffff.  mov dword [var_d0h], 0
│ 0x000013c5      e9f5000000     jmp 0x14bf
| ----------- true: 0x000014bf
│ ; CODE XREF from fcn.000013b7 @ 0x13c5
│ ; CODE XREF from fcn.000013ca @ 0x1422
│ ; CODE XREF from fcn.00001483 @ 0x1493
└ 0x000014bf      838534ffffff.  add dword [rbp - 0xcc], 1
| ----------- true: 0x000014c6
  ; DATA XREF from sym.combineCharMulti @ 0x1359
  ; DATA XREF from fcn.00001427 @ +0x4d
┌ 93: fcn.000013ca ();
│ ; var int64_t var_d8h @ rbp-0xd8
│ ; var int64_t var_d4h @ rbp-0xd4
│ ; var int64_t var_d0h @ rbp-0xd0
│ 0x000013ca      f30f1efa       endbr64
│ 0x000013ce      0fb6852cffff.  movzx eax, byte [var_d4h]
│ 0x000013d5      228528ffffff   and al, byte [var_d8h]
│ 0x000013db      0fbed0         movsx edx, al
│ 0x000013de      0fb6852cffff.  movzx eax, byte [var_d4h]
│ 0x000013e5      0a8528ffffff   or al, byte [var_d8h]
│ 0x000013eb      0fbec0         movsx eax, al
│ 0x000013ee      0fafd0         imul edx, eax
│ 0x000013f1      0fbe852cffff.  movsx eax, byte [var_d4h]
│ 0x000013f8      0fbe8d28ffff.  movsx ecx, byte [var_d8h]
│ 0x000013ff      f7d1           not ecx
│ 0x00001401      21c1           and ecx, eax
│ 0x00001403      0fbe852cffff.  movsx eax, byte [var_d4h]
│ 0x0000140a      f7d0           not eax
│ 0x0000140c      89c6           mov esi, eax
│ 0x0000140e      0fbe8528ffff.  movsx eax, byte [var_d8h]
│ 0x00001415      21f0           and eax, esi
│ 0x00001417      0fafc1         imul eax, ecx
│ 0x0000141a      01d0           add eax, edx
│ 0x0000141c      898530ffffff   mov dword [var_d0h], eax
└ 0x00001422      e998000000     jmp 0x14bf                            ; fcn.000014ae+0x11
| ----------- true: 0x000014bf
  ; DATA XREF from sym.combineCharMulti @ 0x1338
  ; DATA XREF from fcn.00001483 @ +0x1c
┌ 45: fcn.00001427 ();
│ ; var int64_t var_b0h @ rbp-0xb0
│ 0x00001427      f30f1efa       endbr64
│ 0x0000142b      c78550ffffff.  mov dword [var_b0h], 1
│ 0x00001435      488d057bffff.  lea rax, [fcn.000013b7]               ; 0x13b7
│ 0x0000143c      4889c7         mov rdi, rax
│ 0x0000143f      e82b0e0000     call sym._3_bf_1
│ 0x00001444      f30f1efa       endbr64
│ 0x00001448      cdc7           int 0xc7
│ 0x0000144a      8554ffff       test dword [rdi + rdi*8 - 1], edx
│ 0x0000144e      ff01           inc dword [rcx]
│ 0x00001450      0000           add byte [rax], al
└ 0x00001452      00f3           add bl, dh

┌ 18: fcn.00001483 ();
│ 0x00001483      f30f1efa       endbr64
│ 0x00001487      2e4bc78564ff.  mov qword cs:[r13 - 0x9c], 1
└ 0x00001493      eb2a           jmp 0x14bf                            ; fcn.000014ae+0x11
| ----------- true: 0x000014bf
┌ 24: fcn.000014ae ();
│ ; var int64_t var_cch @ rbp-0xcc
│ 0x000014ae      f30f1efa       endbr64
│ 0x000014b2      0100           add dword [rax], eax
│ 0x000014b4      00c7           add bh, al
│ 0x000014b6      855cffff       test dword [rdi + rdi*8 - 1], ebx
│ 0x000014ba      ff01           inc dword [rcx]
│ 0x000014bc      0000           add byte [rax], al
│ 0x000014be      00838534ffff   add byte [rbx - 0xcb7b], al
└ 0x000014c4      ff01           inc dword [rcx]
| ----------- true: 0x000014c6
  ; DATA XREF from sym.getFibNo @ 0x16e0
  ; DATA XREF from fcn.00001824 @ 0x1873
┌ 180: fcn.0000176a (int64_t arg_31h);
│ ; var int64_t var_120h @ rbp-0x120
│ ; var int64_t var_11ch @ rbp-0x11c
│ ; var int64_t var_118h @ rbp-0x118
│ ; var int64_t var_114h @ rbp-0x114
│ ; var int64_t var_d8h @ rbp-0xd8
│ ; var int64_t var_d4h @ rbp-0xd4
│ ; var int64_t var_d0h @ rbp-0xd0
│ ; arg int64_t arg_31h @ rbp+0x31
│ 0x0000176a      f30f1efa       endbr64
│ 0x0000176e      c78528ffffff.  mov dword [var_d8h], 1
│ 0x00001778      488d05180100.  lea rax, [0x00001897]
│ 0x0000177f      4889c7         mov rdi, rax
│ 0x00001782      e8e80a0000     call sym._3_bf_1
│ 0x00001787      f30f1efa       endbr64
│ 0x0000178b      ff00           inc dword [rax]
│ 0x0000178d      0000           add byte [rax], al
│ 0x0000178f      004531         add byte [arg_31h], al
│ 0x00001792      c7852cffffff.  mov dword [var_d4h], 1
│ ; DATA XREF from sym.getFibNo @ 0x170c
│ ; DATA XREF from fcn.00001919 @ 0x1a15
│ 0x0000179c      f30f1efa       endbr64
│ 0x000017a0      8b85e0feffff   mov eax, dword [var_120h]
│ 0x000017a6      0b85e4feffff   or eax, dword [var_11ch]
│ 0x000017ac      8d1400         lea edx, [rax + rax]
│ 0x000017af      8b85e0feffff   mov eax, dword [var_120h]
│ 0x000017b5      3385e4feffff   xor eax, dword [var_11ch]
│ 0x000017bb      29c2           sub edx, eax
│ 0x000017bd      89d0           mov eax, edx
│ 0x000017bf      8985e8feffff   mov dword [var_118h], eax
│ 0x000017c5      8b85e4feffff   mov eax, dword [var_11ch]
│ 0x000017cb      8985e0feffff   mov dword [var_120h], eax
│ 0x000017d1      8b85e8feffff   mov eax, dword [var_118h]
│ 0x000017d7      8985e4feffff   mov dword [var_11ch], eax
│ 0x000017dd      8b85ecfeffff   mov eax, dword [var_114h]
│ 0x000017e3      83f001         xor eax, 1
│ 0x000017e6      89c2           mov edx, eax
│ 0x000017e8      8b85ecfeffff   mov eax, dword [var_114h]
│ 0x000017ee      01c0           add eax, eax
│ 0x000017f0      83e002         and eax, 2
│ 0x000017f3      01d0           add eax, edx
│ 0x000017f5      8985ecfeffff   mov dword [var_114h], eax
│ 0x000017fb      c78530ffffff.  mov dword [var_d0h], 1
│ 0x00001805      488d050d0100.  lea rax, [fcn.00001919]               ; 0x1919
│ 0x0000180c      4889c7         mov rdi, rax
│ 0x0000180f      e85b0a0000     call sym._3_bf_1
│ 0x00001814      f30f1efa       endbr64
└ 0x00001818      22bbc78534ff   and bh, byte [rbx - 0xcb7a39]

  ; DATA XREF from sym.getFibNo @ 0x16bf
  ; DATA XREF from fcn.00001919 @ 0x1a46
┌ 126: fcn.00001824 ();
│ ; var int64_t var_10ch @ rbp-0x10c
│ ; var int64_t var_c8h @ rbp-0xc8
│ ; var int64_t var_c0h @ rbp-0xc0
│ ; var int64_t var_bch @ rbp-0xbc
│ 0x00001824      f30f1efa       endbr64
│ 0x00001828      488b15c13800.  mov rdx, qword [obj._2_initTigress_1_opaque_ptr_1] ; [0x50f0:8]=0
│ 0x0000182f      488b05b23800.  mov rax, qword [obj._2_initTigress_1_opaque_ptr_2] ; [0x50e8:8]=0
│ 0x00001836      4839c2         cmp rdx, rax
│ 0x00001839      742e           je 0x1869
| ----------- true: 0x00001869  false: 0x0000183b
│ 0x0000183b      c78540ffffff.  mov dword [var_c0h], 1
│ 0x00001845      488d055e0000.  lea rax, [fcn.000018aa]               ; 0x18aa
│ 0x0000184c      4889c7         mov rdi, rax
│ 0x0000184f      e81b0a0000     call sym._3_bf_1
│ 0x00001854      f30f1efa       endbr64
│ 0x00001858      1ae8           sbb ch, al
│ 0x0000185a      fa             cli
│ 0x0000185b      e339           jrcxz 0x1896
| ----------- true: 0x00001896  false: 0x0000185d
│ 0x0000185d      c78544ffffff.  mov dword [var_bch], 1
│ 0x00001867      eb2e           jmp 0x1897
| ----------- true: 0x00001897
│ ; CODE XREF from fcn.00001824 @ 0x1839
│ 0x00001869      c78538ffffff.  mov dword [var_c8h], 1
│ 0x00001873      488d05f0feff.  lea rax, [fcn.0000176a]               ; 0x176a
│ 0x0000187a      4889c7         mov rdi, rax
│ 0x0000187d      e8ed090000     call sym._3_bf_1
│ 0x00001882      f30f1efa       endbr64

│ ; CODE XREF from fcn.00001824 @ 0x185b
│ 0x00001896      00f3           add bl, dh

│ ; DATA XREF from sym.getFibNo @ 0x16d5
│ ; DATA XREF from fcn.0000176a @ 0x1778
│ ; CODE XREF from fcn.00001824 @ 0x1867
│ 0x00001897      f30f1efa       endbr64
│ 0x0000189b      c785f0feffff.  mov dword [rbp - 0x110], 0
│ 0x000018a5      e9c1010000     jmp 0x1a6b
| ----------- true: 0x00001a6b
│ ; CODE XREF from fcn.00001824 @ 0x18a5
│ ; CODE XREF from fcn.000018aa @ 0x18ba
│ ; CODE XREF from fcn.00001919 @ 0x1a3a
└ 0x00001a6b      8385f4feffff.  add dword [var_10ch], 1
| ----------- true: 0x00001a72
  ; DATA XREF from sym.getFibNo @ 0x16eb
  ; DATA XREF from fcn.00001824 @ 0x1845
┌ 21: fcn.000018aa ();
│ ; var int64_t var_118h @ rbp-0x118
│ ; var int64_t var_110h @ rbp-0x110
│ 0x000018aa      f30f1efa       endbr64
│ 0x000018ae      8b85e8feffff   mov eax, dword [var_118h]
│ 0x000018b4      8985f0feffff   mov dword [var_110h], eax
└ 0x000018ba      e9ac010000     jmp 0x1a6b                            ; fcn.00001824+0x247
| ----------- true: 0x00001a6b
  ; DATA XREFS from sym.getFibNo @ 0x16b4, 0x16f6, 0x1701
┌ 76: fcn.000018bf ();
│ ; var int64_t var_120h @ rbp-0x120
│ ; var int64_t var_11ch @ rbp-0x11c
│ ; var int64_t var_118h @ rbp-0x118
│ ; var int64_t var_114h @ rbp-0x114
│ ; var int64_t var_f0h @ rbp-0xf0
│ 0x000018bf      f30f1efa       endbr64
│ 0x000018c3      c785e0feffff.  mov dword [var_120h], 0
│ 0x000018cd      c785e4feffff.  mov dword [var_11ch], 1
│ 0x000018d7      c785e8feffff.  mov dword [var_118h], 1
│ 0x000018e1      c785ecfeffff.  mov dword [var_114h], 0
│ 0x000018eb      c78510ffffff.  mov dword [var_f0h], 1
│ 0x000018f5      488d051d0000.  lea rax, [fcn.00001919]               ; 0x1919
│ 0x000018fc      4889c7         mov rdi, rax
│ 0x000018ff      e86b090000     call sym._3_bf_1
│ 0x00001904      f30f1efa       endbr64
└ 0x00001908      c2870a         ret 0xa87

  ; DATA XREF from sym.getFibNo @ 0x16ca
  ; DATA XREF from fcn.0000176a @ 0x1805
  ; DATA XREF from fcn.000018bf @ 0x18f5
┌ 332: fcn.00001919 ();
│ ; var int64_t var_124h @ rbp-0x124
│ ; var int64_t var_114h @ rbp-0x114
│ ; var int64_t var_e8h @ rbp-0xe8
│ ; var int64_t var_e0h @ rbp-0xe0
│ ; var int64_t var_dch @ rbp-0xdc
│ 0x00001919      f30f1efa       endbr64
│ 0x0000191d      8b85dcfeffff   mov eax, dword [var_124h]
│ 0x00001923      01c0           add eax, eax
│ 0x00001925      83c802         or eax, 2
│ 0x00001928      89c2           mov edx, eax
│ 0x0000192a      8b85dcfeffff   mov eax, dword [var_124h]
│ 0x00001930      83f001         xor eax, 1
│ 0x00001933      29c2           sub edx, eax
│ 0x00001935      89d0           mov eax, edx
│ 0x00001937      2b85ecfeffff   sub eax, dword [var_114h]
│ 0x0000193d      8b95dcfeffff   mov edx, dword [var_124h]
│ 0x00001943      01d2           add edx, edx
│ 0x00001945      89d1           mov ecx, edx
│ 0x00001947      83c902         or ecx, 2
│ 0x0000194a      8b95dcfeffff   mov edx, dword [var_124h]
│ 0x00001950      83f201         xor edx, 1
│ 0x00001953      29d1           sub ecx, edx
│ 0x00001955      89ca           mov edx, ecx
│ 0x00001957      3995ecfeffff   cmp dword [var_114h], edx
│ 0x0000195d      0f9ec2         setle dl
│ 0x00001960      0fb6d2         movzx edx, dl
│ 0x00001963      f7da           neg edx
│ 0x00001965      21d0           and eax, edx
│ 0x00001967      c1f81f         sar eax, 0x1f
│ 0x0000196a      89c1           mov ecx, eax
│ 0x0000196c      8b85dcfeffff   mov eax, dword [var_124h]
│ 0x00001972      01c0           add eax, eax
│ 0x00001974      83c802         or eax, 2
│ 0x00001977      89c2           mov edx, eax
│ 0x00001979      8b85dcfeffff   mov eax, dword [var_124h]
│ 0x0000197f      83f001         xor eax, 1
│ 0x00001982      29c2           sub edx, eax
│ 0x00001984      89d0           mov eax, edx
│ 0x00001986      2b85ecfeffff   sub eax, dword [var_114h]
│ 0x0000198c      8b95dcfeffff   mov edx, dword [var_124h]
│ 0x00001992      01d2           add edx, edx
│ 0x00001994      89d6           mov esi, edx
│ 0x00001996      83ce02         or esi, 2
│ 0x00001999      8b95dcfeffff   mov edx, dword [var_124h]
│ 0x0000199f      83f201         xor edx, 1
│ 0x000019a2      29d6           sub esi, edx
│ 0x000019a4      89f2           mov edx, esi
│ 0x000019a6      3995ecfeffff   cmp dword [var_114h], edx
│ 0x000019ac      0f9ec2         setle dl
│ 0x000019af      0fb6d2         movzx edx, dl
│ 0x000019b2      f7da           neg edx
│ 0x000019b4      21d0           and eax, edx
│ 0x000019b6      29c1           sub ecx, eax
│ 0x000019b8      8b85dcfeffff   mov eax, dword [var_124h]
│ 0x000019be      01c0           add eax, eax
│ 0x000019c0      83c802         or eax, 2
│ 0x000019c3      89c2           mov edx, eax
│ 0x000019c5      8b85dcfeffff   mov eax, dword [var_124h]
│ 0x000019cb      83f001         xor eax, 1
│ 0x000019ce      29c2           sub edx, eax
│ 0x000019d0      89d0           mov eax, edx
│ 0x000019d2      2b85ecfeffff   sub eax, dword [var_114h]
│ 0x000019d8      8b95dcfeffff   mov edx, dword [var_124h]
│ 0x000019de      01d2           add edx, edx
│ 0x000019e0      89d6           mov esi, edx
│ 0x000019e2      83ce02         or esi, 2
│ 0x000019e5      8b95dcfeffff   mov edx, dword [var_124h]
│ 0x000019eb      83f201         xor edx, 1
│ 0x000019ee      29d6           sub esi, edx
│ 0x000019f0      89f2           mov edx, esi
│ 0x000019f2      3995ecfeffff   cmp dword [var_114h], edx
│ 0x000019f8      0f9ec2         setle dl
│ 0x000019fb      0fb6d2         movzx edx, dl
│ 0x000019fe      f7da           neg edx
│ 0x00001a00      21d0           and eax, edx
│ 0x00001a02      c1f81f         sar eax, 0x1f
│ 0x00001a05      31c8           xor eax, ecx
│ 0x00001a07      85c0           test eax, eax
│ 0x00001a09      7931           jns 0x1a3c
| ----------- true: 0x00001a3c  false: 0x00001a0b
│ 0x00001a0b      c78520ffffff.  mov dword [var_e0h], 1
│ 0x00001a15      488d0580fdff.  lea rax, [0x0000179c]
│ 0x00001a1c      4889c7         mov rdi, rax
│ 0x00001a1f      e84b080000     call sym._3_bf_1
│ 0x00001a24      f30f1efa       endbr64
│ 0x00001a28      c605e63d0000.  mov byte [0x00005815], 0              ; [0x5815:1]=255
│ 0x00001a2f      44c78524ffff.  mov dword [var_dch], 1
│ 0x00001a3a      eb2f           jmp 0x1a6b                            ; fcn.00001824+0x247
| ----------- true: 0x00001a6b
│ ; CODE XREF from fcn.00001919 @ 0x1a09
│ 0x00001a3c      c78518ffffff.  mov dword [var_e8h], 1
│ 0x00001a46      488d05d7fdff.  lea rax, [fcn.00001824]               ; 0x1824
│ 0x00001a4d      4889c7         mov rdi, rax
│ 0x00001a50      e81a080000     call sym._3_bf_1
│ 0x00001a55      f30f1efa       endbr64
│ 0x00001a59      0000           add byte [rax], al
│ 0x00001a5b      7d02           jge 0x1a5f
| ----------- true: 0x00001a5f  false: 0x00001a5d
│ 0x00001a5d      5d             pop rbp
│ 0x00001a5e      c3             ret

│ ; CODE XREF from fcn.00001919 @ 0x1a5b
│ 0x00001a5f      4883c785       add rdi, 0xffffffffffffff85
└ 0x00001a63      1cff           sbb al, 0xff

  ; DATA XREF from sym.generateLicense @ 0x1d76
  ; DATA XREF from fcn.00002034 @ 0x2055
┌ 129: fcn.00001df5 ();
│ ; var int64_t var_134h @ rbp-0x134
│ ; var int64_t var_10ch @ rbp-0x10c
│ ; var int64_t var_104h @ rbp-0x104
│ 0x00001df5      f30f1efa       endbr64
│ 0x00001df9      8b0501330000   mov eax, dword [obj.keyLength]        ; [0x5100:4]=10 ; "\n"
│ 0x00001dff      f7d0           not eax
│ 0x00001e01      2385ccfeffff   and eax, dword [var_134h]
│ 0x00001e07      89c2           mov edx, eax
│ 0x00001e09      8b05f1320000   mov eax, dword [obj.keyLength]        ; [0x5100:4]=10 ; "\n"
│ 0x00001e0f      3385ccfeffff   xor eax, dword [var_134h]
│ 0x00001e15      f7d0           not eax
│ 0x00001e17      89c6           mov esi, eax
│ 0x00001e19      8b05e1320000   mov eax, dword [obj.keyLength]        ; [0x5100:4]=10 ; "\n"
│ 0x00001e1f      8b8dccfeffff   mov ecx, dword [var_134h]
│ 0x00001e25      29c1           sub ecx, eax
│ 0x00001e27      89c8           mov eax, ecx
│ 0x00001e29      21f0           and eax, esi
│ 0x00001e2b      09d0           or eax, edx
│ 0x00001e2d      85c0           test eax, eax
│ 0x00001e2f      792c           jns 0x1e5d
| ----------- true: 0x00001e5d  false: 0x00001e31
│ 0x00001e31      c785fcfeffff.  mov dword [var_104h], 1
│ 0x00001e3b      488d05760000.  lea rax, [0x00001eb8]
│ 0x00001e42      4889c7         mov rdi, rax
│ 0x00001e45      e825040000     call sym._3_bf_1
│ 0x00001e4a      f30f1efa       endbr64
│ 0x00001e4e      01c6           add esi, eax
│ 0x00001e50      05c78500ff     add eax, 0xff0085c7

│ ; CODE XREF from fcn.00001df5 @ 0x1e2f
│ 0x00001e5d      c785f4feffff.  mov dword [var_10ch], 1
│ 0x00001e67      488d05390200.  lea rax, [fcn.000020a7]               ; 0x20a7
│ 0x00001e6e      4889c7         mov rdi, rax
│ 0x00001e71      e8f9030000     call sym._3_bf_1
│ 0x00001e76      f30f1efa       endbr64
│ 0x00001e7a      00c7           add bh, al
└ 0x00001e7c      85f8           test eax, edi

  ; DATA XREF from sym.generateLicense @ 0x1d6b
  ; DATA XREF from fcn.00002034 @ 0x2086
┌ 427: fcn.00001e85 ();
│ ; var int64_t var_150h @ rbp-0x150
│ ; var int64_t var_148h @ rbp-0x148
│ ; var int64_t var_137h @ rbp-0x137
│ ; var int64_t var_136h @ rbp-0x136
│ ; var int64_t var_135h @ rbp-0x135
│ ; var int64_t var_134h @ rbp-0x134
│ ; var int64_t var_fch @ rbp-0xfc
│ ; var int64_t var_f8h @ rbp-0xf8
│ ; var int64_t var_f4h @ rbp-0xf4
│ ; var int64_t var_f0h @ rbp-0xf0
│ ; var int64_t var_ech @ rbp-0xec
│ ; var int64_t var_e8h @ rbp-0xe8
│ ; var int64_t var_c8h @ rbp-0xc8
│ ; var int64_t var_c0h @ rbp-0xc0
│ ; var int64_t var_b8h @ rbp-0xb8
│ 0x00001e85      f30f1efa       endbr64
│ 0x00001e89      c78504ffffff.  mov dword [var_fch], 1
│ 0x00001e93      488d051e0000.  lea rax, [0x00001eb8]
│ 0x00001e9a      4889c7         mov rdi, rax
│ 0x00001e9d      e8cd030000     call sym._3_bf_1
│ 0x00001ea2      f30f1efa       endbr64
│ 0x00001ea6      231f           and ebx, dword [rdi]
│ 0x00001ea8      8369965e       sub dword [rcx - 0x6a], 0x5e          ; [0x5e:4]=0x2d80000
│ 0x00001eac      7968           jns 0x1f16
| ----------- true: 0x00001f16  false: 0x00001eae
│ 0x00001eae      c78508ffffff.  mov dword [var_f8h], 1
│ ; DATA XREF from sym.generateLicense @ 0x1d8c
│ ; DATA XREF from fcn.00001df5 @ 0x1e3b
│ ; DATA XREF from fcn.00001e85 @ 0x1e93
│ 0x00001eb8      f30f1efa       endbr64
│ 0x00001ebc      8b85ccfeffff   mov eax, dword [var_134h]
│ 0x00001ec2      89c7           mov edi, eax
│ 0x00001ec4      e8c7f7ffff     call sym.getFibNo
│ 0x00001ec9      89850cffffff   mov dword [var_f4h], eax
│ 0x00001ecf      8b85ccfeffff   mov eax, dword [var_134h]
│ 0x00001ed5      01c0           add eax, eax
│ 0x00001ed7      83c802         or eax, 2
│ 0x00001eda      89c2           mov edx, eax
│ 0x00001edc      8b85ccfeffff   mov eax, dword [var_134h]
│ 0x00001ee2      83f001         xor eax, 1
│ 0x00001ee5      29c2           sub edx, eax
│ 0x00001ee7      89d0           mov eax, edx
│ 0x00001ee9      89c7           mov edi, eax
│ 0x00001eeb      e8a0f7ffff     call sym.getFibNo
│ 0x00001ef0      898510ffffff   mov dword [var_f0h], eax
│ 0x00001ef6      488b85b8feff.  mov rax, qword [var_148h]
│ 0x00001efd      4889c7         mov rdi, rax
│ 0x00001f00      e8bbf1ffff     call sym.imp.strlen                   ; size_t strlen(const char *s)
│ 0x00001f05      48898538ffff.  mov qword [var_c8h], rax
│ 0x00001f0c      8b850cffffff   mov eax, dword [var_f4h]
│ 0x00001f12      4898           cdqe
│ 0x00001f14      ba00000000     mov edx, 0
│ 0x00001f19      48f7b538ffff.  div qword [var_c8h]
│ 0x00001f20      488b85b8feff.  mov rax, qword [var_148h]
│ 0x00001f27      4801d0         add rax, rdx
│ 0x00001f2a      0fb600         movzx eax, byte [rax]
│ 0x00001f2d      8885cafeffff   mov byte [var_136h], al
│ 0x00001f33      488b05de3100.  mov rax, qword [obj.key]              ; [0x5118:8]=0x310f str.TheSecretStaticKey
│ 0x00001f3a      4889c7         mov rdi, rax
│ 0x00001f3d      e87ef1ffff     call sym.imp.strlen                   ; size_t strlen(const char *s)
│ 0x00001f42      48898540ffff.  mov qword [var_c0h], rax
│ 0x00001f49      488b0dc83100.  mov rcx, qword [obj.key]              ; [0x5118:8]=0x310f str.TheSecretStaticKey
│ 0x00001f50      8b8510ffffff   mov eax, dword [var_f0h]
│ 0x00001f56      4898           cdqe
│ 0x00001f58      ba00000000     mov edx, 0
│ 0x00001f5d      48f7b540ffff.  div qword [var_c0h]
│ 0x00001f64      4889d0         mov rax, rdx
│ 0x00001f67      4801c8         add rax, rcx
│ 0x00001f6a      0fb600         movzx eax, byte [rax]
│ 0x00001f6d      8885cbfeffff   mov byte [var_135h], al
│ 0x00001f73      0fbe95cbfeff.  movsx edx, byte [var_135h]
│ 0x00001f7a      0fbe85cafeff.  movsx eax, byte [var_136h]
│ 0x00001f81      89d6           mov esi, edx
│ 0x00001f83      89c7           mov edi, eax
│ 0x00001f85      e880f3ffff     call sym.combineCharMulti
│ 0x00001f8a      898514ffffff   mov dword [var_ech], eax
│ 0x00001f90      488b05713100.  mov rax, qword [obj.alphabet]         ; [0x5108:8]=0x30d0 str.ABCDEFGHIJKLMNOPQRSTUVWXYZabcdefghijklmnopqrstuvwxyz0123456789
│ 0x00001f97      4889c7         mov rdi, rax
│ 0x00001f9a      e821f1ffff     call sym.imp.strlen                   ; size_t strlen(const char *s)
│ 0x00001f9f      48898548ffff.  mov qword [var_b8h], rax
│ 0x00001fa6      488b0d5b3100.  mov rcx, qword [obj.alphabet]         ; [0x5108:8]=0x30d0 str.ABCDEFGHIJKLMNOPQRSTUVWXYZabcdefghijklmnopqrstuvwxyz0123456789
│ 0x00001fad      8b8514ffffff   mov eax, dword [var_ech]
│ 0x00001fb3      4898           cdqe
│ 0x00001fb5      ba00000000     mov edx, 0
│ 0x00001fba      48f7b548ffff.  div qword [var_b8h]
│ 0x00001fc1      4889d0         mov rax, rdx
│ 0x00001fc4      4801c8         add rax, rcx
│ 0x00001fc7      0fb600         movzx eax, byte [rax]
│ 0x00001fca      8885c9feffff   mov byte [var_137h], al
│ 0x00001fd0      488d8dc9feff.  lea rcx, [var_137h]
│ 0x00001fd7      488b85b0feff.  mov rax, qword [var_150h]
│ 0x00001fde      ba01000000     mov edx, 1
│ 0x00001fe3      4889ce         mov rsi, rcx
│ 0x00001fe6      4889c7         mov rdi, rax
│ 0x00001fe9      e812f1ffff     call sym.imp.strncat                  ; char *strncat(char *s1, const char *s2, size_t n)
│ 0x00001fee      8b85ccfeffff   mov eax, dword [var_134h]
│ 0x00001ff4      83f001         xor eax, 1
│ 0x00001ff7      89c2           mov edx, eax
│ 0x00001ff9      8b85ccfeffff   mov eax, dword [var_134h]
│ 0x00001fff      01c0           add eax, eax
│ 0x00002001      83e002         and eax, 2
│ 0x00002004      01d0           add eax, edx
│ 0x00002006      8985ccfeffff   mov dword [var_134h], eax
│ 0x0000200c      c78518ffffff.  mov dword [var_e8h], 1
│ 0x00002016      488d05170000.  lea rax, [fcn.00002034]               ; 0x2034
│ 0x0000201d      4889c7         mov rdi, rax
│ 0x00002020      e84a020000     call sym._3_bf_1
└ 0x00002025      f30f1efa       endbr64

│ ; CODE XREF from fcn.00001e85 @ 0x1eac
│ 0x00001f16      0000           add byte [rax], al
│ 0x00001f18      0048f7         add byte [rax - 9], cl
│ 0x00001f1b      b538           mov ch, 0x38                          ; '8'

  ; DATA XREF from sym.generateLicense @ 0x1d81
  ; DATA XREF from fcn.00001e85 @ 0x2016
  ; DATA XREF from fcn.000020ad @ 0x20c5
┌ 92: fcn.00002034 ();
│ ; var int64_t var_e0h @ rbp-0xe0
│ ; var int64_t var_d8h @ rbp-0xd8
│ 0x00002034      f30f1efa       endbr64
│ 0x00002038      488b15b13000.  mov rdx, qword [obj._2_initTigress_1_opaque_ptr_1] ; [0x50f0:8]=0
│ 0x0000203f      488b05a23000.  mov rax, qword [obj._2_initTigress_1_opaque_ptr_2] ; [0x50e8:8]=0
│ 0x00002046      4839c2         cmp rdx, rax
│ 0x00002049      7431           je 0x207c
| ----------- true: 0x0000207c  false: 0x0000204b
│ 0x0000204b      c78528ffffff.  mov dword [var_d8h], 1
│ 0x00002055      488d0599fdff.  lea rax, [fcn.00001df5]               ; 0x1df5
│ 0x0000205c      4889c7         mov rdi, rax
│ 0x0000205f      e80b020000     call sym._3_bf_1
│ 0x00002064      f30f1efa       endbr64
│ 0x00002068      e950330000     jmp 0x53bd

│ ; CODE XREF from fcn.00002034 @ 0x2049
│ 0x0000207c      c78520ffffff.  mov dword [var_e0h], 1
│ 0x00002086      488d05f8fdff.  lea rax, [fcn.00001e85]               ; 0x1e85
│ 0x0000208d      4889c7         mov rdi, rax
│ 0x00002090      e8da010000     call sym._3_bf_1
│ 0x00002095      f30f1efa       endbr64
│ 0x00002099      4c39c7         cmp rdi, r8
└ 0x0000209c      8524ff         test dword [rdi + rdi*8], esp

  ; DATA XREFS from sym.generateLicense @ 0x1d4a, 0x1d55, 0x1d60
  ; DATA XREF from fcn.00001df5 @ 0x1e67
┌ 13: fcn.000020a7 ();
│ ; var int64_t var_130h @ rbp-0x130
│ 0x000020a7      f30f1efa       endbr64
│ 0x000020ab      eb38           jmp 0x20e5
| ----------- true: 0x000020e5
│ ; CODE XREF from fcn.000020a7 @ 0x20ab
└ 0x000020e5      8385d0feffff.  add dword [var_130h], 1
| ----------- true: 0x000020ec
  ; DATA XREF from sym.generateLicense @ 0x1d97
┌ 56: fcn.000020ad ();
│ ; var int64_t var_134h @ rbp-0x134
│ ; var int64_t var_130h @ rbp-0x130
│ ; var int64_t var_114h @ rbp-0x114
│ ; var int64_t var_110h @ rbp-0x110
│ ; var int64_t var_75h @ rbp-0x75
│ 0x000020ad      f30f1efa       endbr64
│ 0x000020b1      c785ccfeffff.  mov dword [var_134h], 0
│ 0x000020bb      c785ecfeffff.  mov dword [var_114h], 1
│ 0x000020c5      488d0568ffff.  lea rax, [fcn.00002034]               ; 0x2034
│ 0x000020cc      4889c7         mov rdi, rax
│ 0x000020cf      e89b010000     call sym._3_bf_1
│ 0x000020d4      f30f1efa       endbr64
│ 0x000020d8      8b7d8b         mov edi, dword [var_75h]
└ 0x000020db      c785f0feffff.  mov dword [var_110h], 1
| ----------- true: 0x000020e5
